[?25l[?7l[0m[31m[1m
      `-/+++++++++++++++++/-.`
   `/syyyyyyyyyyyyyyyyyyyyyyys/.
  :yyyyo/-...............-/oyyyy/
 /yyys-                     .oyyy+
.yyyy`                       `syyy-
:yyyo                         /yyy/
.yyyy`                       `syyy-
 /yyys.                     .oyyyo
  /yyyyo:-...............-:oyyyy/`
   `/syyyyyyyyyyyyyyyyyyyyyyys+.
     `.:/+ooooooooooooooo+/:.`[0m
[12A[9999999D













[?25h[?7h